File,Version,Last translator,...as of
doc/po/de.po,3.27,,
doc/po/es.po,3.27,,
doc/po/fr.po,3.27,,
doc/po/it.po,3.27,,
doc/po/nl.po,3.27,Frans Spiesschaert <Frans.Spiesschaert@yucom.be>,2023-10-03
doc/po/pl.po,3.27,,
doc/po/pt.po,4,Américo Monteiro <a_monteiro@gmx.com>,2023-10-03
po/ar.po,3.27,,
po/ca.po,3.27,,
po/cs.po,3.27,,
po/da.po,3.27,,
po/de.po,3.27,,
po/es.po,3.27,,
po/et.po,3.27,,
po/eu.po,3.27,,
po/fi.po,3.27,,
po/fr.po,3.27,,
po/gl.po,3.27,,
po/it.po,3.27,,
po/ja.po,3.27,,
po/nl.po,3.27,,
po/pl.po,3.27,,
po/pt.po,3.27,,
po/pt_BR.po,3.27,,
po/ro.po,3.27,"""Remus-Gabriel Chelu"" <remusgabriel.chelu@disroot.org>",2023-04-10
po/ru.po,3.27,,
po/sv.po,3.27,,
po/zh_CN.po,3.27,,
po/zh_TW.po,3.27,,
